{"frames": {

	"block-000":
	{
		"frame": {"x":2,"y":2,"w":50,"h":50},
		"rotated": false,
		"trimmed": false,
		"spriteSourceSize": {"x":0,"y":0,"w":50,"h":50},
		"sourceSize": {"w":50,"h":50},
		"pivot": {"x":0.5,"y":0.5}
	},
	"block-001":
	{
		"frame": {"x":2,"y":52,"w":50,"h":50},
		"rotated": false,
		"trimmed": false,
		"spriteSourceSize": {"x":0,"y":0,"w":50,"h":50},
		"sourceSize": {"w":50,"h":50},
		"pivot": {"x":0.5,"y":0.5}
	},
	"block-002":
	{
		"frame": {"x":2,"y":102,"w":50,"h":50},
		"rotated": false,
		"trimmed": false,
		"spriteSourceSize": {"x":0,"y":0,"w":50,"h":50},
		"sourceSize": {"w":50,"h":50},
		"pivot": {"x":0.5,"y":0.5}
	},
	"block-003":
	{
		"frame": {"x":2,"y":152,"w":50,"h":50},
		"rotated": false,
		"trimmed": false,
		"spriteSourceSize": {"x":0,"y":0,"w":50,"h":50},
		"sourceSize": {"w":50,"h":50},
		"pivot": {"x":0.5,"y":0.5}
	},
	"block-004":
	{
		"frame": {"x":2,"y":202,"w":50,"h":50},
		"rotated": false,
		"trimmed": false,
		"spriteSourceSize": {"x":0,"y":0,"w":50,"h":50},
		"sourceSize": {"w":50,"h":50},
		"pivot": {"x":0.5,"y":0.5}
	},
	"block-005":
	{
		"frame": {"x":2,"y":252,"w":50,"h":50},
		"rotated": false,
		"trimmed": false,
		"spriteSourceSize": {"x":0,"y":0,"w":50,"h":50},
		"sourceSize": {"w":50,"h":50},
		"pivot": {"x":0.5,"y":0.5}
	},
	"block-006":
	{
		"frame": {"x":2,"y":302,"w":50,"h":50},
		"rotated": false,
		"trimmed": false,
		"spriteSourceSize": {"x":0,"y":0,"w":50,"h":50},
		"sourceSize": {"w":50,"h":50},
		"pivot": {"x":0.5,"y":0.5}
	},
	"block-007":
	{
		"frame": {"x":2,"y":352,"w":50,"h":50},
		"rotated": false,
		"trimmed": false,
		"spriteSourceSize": {"x":0,"y":0,"w":50,"h":50},
		"sourceSize": {"w":50,"h":50},
		"pivot": {"x":0.5,"y":0.5}
	},
	"block-008":
	{
		"frame": {"x":2,"y":402,"w":50,"h":50},
		"rotated": false,
		"trimmed": false,
		"spriteSourceSize": {"x":0,"y":0,"w":50,"h":50},
		"sourceSize": {"w":50,"h":50},
		"pivot": {"x":0.5,"y":0.5}
	},
	"block-009":
	{
		"frame": {"x":2,"y":452,"w":50,"h":50},
		"rotated": false,
		"trimmed": false,
		"spriteSourceSize": {"x":0,"y":0,"w":50,"h":50},
		"sourceSize": {"w":50,"h":50},
		"pivot": {"x":0.5,"y":0.5}
	},
	"block-010":
	{
		"frame": {"x":2,"y":502,"w":50,"h":50},
		"rotated": false,
		"trimmed": false,
		"spriteSourceSize": {"x":0,"y":0,"w":50,"h":50},
		"sourceSize": {"w":50,"h":50},
		"pivot": {"x":0.5,"y":0.5}
	},
	"block-011":
	{
		"frame": {"x":2,"y":552,"w":50,"h":50},
		"rotated": false,
		"trimmed": false,
		"spriteSourceSize": {"x":0,"y":0,"w":50,"h":50},
		"sourceSize": {"w":50,"h":50},
		"pivot": {"x":0.5,"y":0.5}
	},
	"block-012":
	{
		"frame": {"x":2,"y":602,"w":50,"h":50},
		"rotated": false,
		"trimmed": false,
		"spriteSourceSize": {"x":0,"y":0,"w":50,"h":50},
		"sourceSize": {"w":50,"h":50},
		"pivot": {"x":0.5,"y":0.5}
	},
	"block-013":
	{
		"frame": {"x":2,"y":652,"w":50,"h":50},
		"rotated": false,
		"trimmed": false,
		"spriteSourceSize": {"x":0,"y":0,"w":50,"h":50},
		"sourceSize": {"w":50,"h":50},
		"pivot": {"x":0.5,"y":0.5}
	},
	"block-014":
	{
		"frame": {"x":2,"y":702,"w":50,"h":50},
		"rotated": false,
		"trimmed": false,
		"spriteSourceSize": {"x":0,"y":0,"w":50,"h":50},
		"sourceSize": {"w":50,"h":50},
		"pivot": {"x":0.5,"y":0.5}
	},
	"block-015":
	{
		"frame": {"x":2,"y":752,"w":50,"h":50},
		"rotated": false,
		"trimmed": false,
		"spriteSourceSize": {"x":0,"y":0,"w":50,"h":50},
		"sourceSize": {"w":50,"h":50},
		"pivot": {"x":0.5,"y":0.5}
	},
	"block-016":
	{
		"frame": {"x":2,"y":802,"w":50,"h":50},
		"rotated": false,
		"trimmed": false,
		"spriteSourceSize": {"x":0,"y":0,"w":50,"h":50},
		"sourceSize": {"w":50,"h":50},
		"pivot": {"x":0.5,"y":0.5}
	},
	"block-017":
	{
		"frame": {"x":2,"y":852,"w":50,"h":50},
		"rotated": false,
		"trimmed": false,
		"spriteSourceSize": {"x":0,"y":0,"w":50,"h":50},
		"sourceSize": {"w":50,"h":50},
		"pivot": {"x":0.5,"y":0.5}
	},
	"block-018":
	{
		"frame": {"x":2,"y":902,"w":50,"h":50},
		"rotated": false,
		"trimmed": false,
		"spriteSourceSize": {"x":0,"y":0,"w":50,"h":50},
		"sourceSize": {"w":50,"h":50},
		"pivot": {"x":0.5,"y":0.5}
	},
	"block-019":
	{
		"frame": {"x":2,"y":952,"w":50,"h":50},
		"rotated": false,
		"trimmed": false,
		"spriteSourceSize": {"x":0,"y":0,"w":50,"h":50},
		"sourceSize": {"w":50,"h":50},
		"pivot": {"x":0.5,"y":0.5}
	},
	"block-020":
	{
		"frame": {"x":52,"y":2,"w":50,"h":50},
		"rotated": false,
		"trimmed": false,
		"spriteSourceSize": {"x":0,"y":0,"w":50,"h":50},
		"sourceSize": {"w":50,"h":50},
		"pivot": {"x":0.5,"y":0.5}
	},
	"block-021":
	{
		"frame": {"x":52,"y":52,"w":50,"h":50},
		"rotated": false,
		"trimmed": false,
		"spriteSourceSize": {"x":0,"y":0,"w":50,"h":50},
		"sourceSize": {"w":50,"h":50},
		"pivot": {"x":0.5,"y":0.5}
	},
	"block-022":
	{
		"frame": {"x":52,"y":102,"w":50,"h":50},
		"rotated": false,
		"trimmed": false,
		"spriteSourceSize": {"x":0,"y":0,"w":50,"h":50},
		"sourceSize": {"w":50,"h":50},
		"pivot": {"x":0.5,"y":0.5}
	},
	"block-023":
	{
		"frame": {"x":52,"y":152,"w":50,"h":50},
		"rotated": false,
		"trimmed": false,
		"spriteSourceSize": {"x":0,"y":0,"w":50,"h":50},
		"sourceSize": {"w":50,"h":50},
		"pivot": {"x":0.5,"y":0.5}
	},
	"block-024":
	{
		"frame": {"x":52,"y":202,"w":50,"h":50},
		"rotated": false,
		"trimmed": false,
		"spriteSourceSize": {"x":0,"y":0,"w":50,"h":50},
		"sourceSize": {"w":50,"h":50},
		"pivot": {"x":0.5,"y":0.5}
	},
	"block-025":
	{
		"frame": {"x":52,"y":252,"w":50,"h":50},
		"rotated": false,
		"trimmed": false,
		"spriteSourceSize": {"x":0,"y":0,"w":50,"h":50},
		"sourceSize": {"w":50,"h":50},
		"pivot": {"x":0.5,"y":0.5}
	},
	"block-026":
	{
		"frame": {"x":52,"y":302,"w":50,"h":50},
		"rotated": false,
		"trimmed": false,
		"spriteSourceSize": {"x":0,"y":0,"w":50,"h":50},
		"sourceSize": {"w":50,"h":50},
		"pivot": {"x":0.5,"y":0.5}
	},
	"block-027":
	{
		"frame": {"x":52,"y":352,"w":50,"h":50},
		"rotated": false,
		"trimmed": false,
		"spriteSourceSize": {"x":0,"y":0,"w":50,"h":50},
		"sourceSize": {"w":50,"h":50},
		"pivot": {"x":0.5,"y":0.5}
	},
	"block-028":
	{
		"frame": {"x":52,"y":402,"w":50,"h":50},
		"rotated": false,
		"trimmed": false,
		"spriteSourceSize": {"x":0,"y":0,"w":50,"h":50},
		"sourceSize": {"w":50,"h":50},
		"pivot": {"x":0.5,"y":0.5}
	},
	"block-029":
	{
		"frame": {"x":52,"y":452,"w":50,"h":50},
		"rotated": false,
		"trimmed": false,
		"spriteSourceSize": {"x":0,"y":0,"w":50,"h":50},
		"sourceSize": {"w":50,"h":50},
		"pivot": {"x":0.5,"y":0.5}
	},
	"block-030":
	{
		"frame": {"x":52,"y":502,"w":50,"h":50},
		"rotated": false,
		"trimmed": false,
		"spriteSourceSize": {"x":0,"y":0,"w":50,"h":50},
		"sourceSize": {"w":50,"h":50},
		"pivot": {"x":0.5,"y":0.5}
	},
	"block-031":
	{
		"frame": {"x":52,"y":552,"w":50,"h":50},
		"rotated": false,
		"trimmed": false,
		"spriteSourceSize": {"x":0,"y":0,"w":50,"h":50},
		"sourceSize": {"w":50,"h":50},
		"pivot": {"x":0.5,"y":0.5}
	},
	"block-032":
	{
		"frame": {"x":52,"y":602,"w":50,"h":50},
		"rotated": false,
		"trimmed": false,
		"spriteSourceSize": {"x":0,"y":0,"w":50,"h":50},
		"sourceSize": {"w":50,"h":50},
		"pivot": {"x":0.5,"y":0.5}
	},
	"block-033":
	{
		"frame": {"x":52,"y":652,"w":50,"h":50},
		"rotated": false,
		"trimmed": false,
		"spriteSourceSize": {"x":0,"y":0,"w":50,"h":50},
		"sourceSize": {"w":50,"h":50},
		"pivot": {"x":0.5,"y":0.5}
	},
	"block-034":
	{
		"frame": {"x":52,"y":702,"w":50,"h":50},
		"rotated": false,
		"trimmed": false,
		"spriteSourceSize": {"x":0,"y":0,"w":50,"h":50},
		"sourceSize": {"w":50,"h":50},
		"pivot": {"x":0.5,"y":0.5}
	},
	"block-035":
	{
		"frame": {"x":52,"y":752,"w":50,"h":50},
		"rotated": false,
		"trimmed": false,
		"spriteSourceSize": {"x":0,"y":0,"w":50,"h":50},
		"sourceSize": {"w":50,"h":50},
		"pivot": {"x":0.5,"y":0.5}
	},
	"block-036":
	{
		"frame": {"x":52,"y":802,"w":50,"h":50},
		"rotated": false,
		"trimmed": false,
		"spriteSourceSize": {"x":0,"y":0,"w":50,"h":50},
		"sourceSize": {"w":50,"h":50},
		"pivot": {"x":0.5,"y":0.5}
	},
	"block-037":
	{
		"frame": {"x":52,"y":852,"w":50,"h":50},
		"rotated": false,
		"trimmed": false,
		"spriteSourceSize": {"x":0,"y":0,"w":50,"h":50},
		"sourceSize": {"w":50,"h":50},
		"pivot": {"x":0.5,"y":0.5}
	},
	"block-038":
	{
		"frame": {"x":52,"y":902,"w":50,"h":50},
		"rotated": false,
		"trimmed": false,
		"spriteSourceSize": {"x":0,"y":0,"w":50,"h":50},
		"sourceSize": {"w":50,"h":50},
		"pivot": {"x":0.5,"y":0.5}
	},
	"block-039":
	{
		"frame": {"x":52,"y":952,"w":50,"h":50},
		"rotated": false,
		"trimmed": false,
		"spriteSourceSize": {"x":0,"y":0,"w":50,"h":50},
		"sourceSize": {"w":50,"h":50},
		"pivot": {"x":0.5,"y":0.5}
	},
	"block-040":
	{
		"frame": {"x":102,"y":2,"w":50,"h":50},
		"rotated": false,
		"trimmed": false,
		"spriteSourceSize": {"x":0,"y":0,"w":50,"h":50},
		"sourceSize": {"w":50,"h":50},
		"pivot": {"x":0.5,"y":0.5}
	},
	"block-041":
	{
		"frame": {"x":102,"y":52,"w":50,"h":50},
		"rotated": false,
		"trimmed": false,
		"spriteSourceSize": {"x":0,"y":0,"w":50,"h":50},
		"sourceSize": {"w":50,"h":50},
		"pivot": {"x":0.5,"y":0.5}
	},
	"block-042":
	{
		"frame": {"x":102,"y":102,"w":50,"h":50},
		"rotated": false,
		"trimmed": false,
		"spriteSourceSize": {"x":0,"y":0,"w":50,"h":50},
		"sourceSize": {"w":50,"h":50},
		"pivot": {"x":0.5,"y":0.5}
	},
	"block-043":
	{
		"frame": {"x":102,"y":152,"w":50,"h":50},
		"rotated": false,
		"trimmed": false,
		"spriteSourceSize": {"x":0,"y":0,"w":50,"h":50},
		"sourceSize": {"w":50,"h":50},
		"pivot": {"x":0.5,"y":0.5}
	},
	"block-044":
	{
		"frame": {"x":102,"y":202,"w":50,"h":50},
		"rotated": false,
		"trimmed": false,
		"spriteSourceSize": {"x":0,"y":0,"w":50,"h":50},
		"sourceSize": {"w":50,"h":50},
		"pivot": {"x":0.5,"y":0.5}
	},
	"block-045":
	{
		"frame": {"x":102,"y":252,"w":50,"h":50},
		"rotated": false,
		"trimmed": false,
		"spriteSourceSize": {"x":0,"y":0,"w":50,"h":50},
		"sourceSize": {"w":50,"h":50},
		"pivot": {"x":0.5,"y":0.5}
	},
	"block-046":
	{
		"frame": {"x":102,"y":302,"w":50,"h":50},
		"rotated": false,
		"trimmed": false,
		"spriteSourceSize": {"x":0,"y":0,"w":50,"h":50},
		"sourceSize": {"w":50,"h":50},
		"pivot": {"x":0.5,"y":0.5}
	},
	"block-047":
	{
		"frame": {"x":102,"y":352,"w":50,"h":50},
		"rotated": false,
		"trimmed": false,
		"spriteSourceSize": {"x":0,"y":0,"w":50,"h":50},
		"sourceSize": {"w":50,"h":50},
		"pivot": {"x":0.5,"y":0.5}
	},
	"block-048":
	{
		"frame": {"x":102,"y":402,"w":50,"h":50},
		"rotated": false,
		"trimmed": false,
		"spriteSourceSize": {"x":0,"y":0,"w":50,"h":50},
		"sourceSize": {"w":50,"h":50},
		"pivot": {"x":0.5,"y":0.5}
	},
	"block-049":
	{
		"frame": {"x":102,"y":452,"w":50,"h":50},
		"rotated": false,
		"trimmed": false,
		"spriteSourceSize": {"x":0,"y":0,"w":50,"h":50},
		"sourceSize": {"w":50,"h":50},
		"pivot": {"x":0.5,"y":0.5}
	},
	"block-050":
	{
		"frame": {"x":102,"y":502,"w":50,"h":50},
		"rotated": false,
		"trimmed": false,
		"spriteSourceSize": {"x":0,"y":0,"w":50,"h":50},
		"sourceSize": {"w":50,"h":50},
		"pivot": {"x":0.5,"y":0.5}
	},
	"block-051":
	{
		"frame": {"x":102,"y":552,"w":50,"h":50},
		"rotated": false,
		"trimmed": false,
		"spriteSourceSize": {"x":0,"y":0,"w":50,"h":50},
		"sourceSize": {"w":50,"h":50},
		"pivot": {"x":0.5,"y":0.5}
	},
	"block-052":
	{
		"frame": {"x":102,"y":602,"w":50,"h":50},
		"rotated": false,
		"trimmed": false,
		"spriteSourceSize": {"x":0,"y":0,"w":50,"h":50},
		"sourceSize": {"w":50,"h":50},
		"pivot": {"x":0.5,"y":0.5}
	},
	"block-053":
	{
		"frame": {"x":102,"y":652,"w":50,"h":50},
		"rotated": false,
		"trimmed": false,
		"spriteSourceSize": {"x":0,"y":0,"w":50,"h":50},
		"sourceSize": {"w":50,"h":50},
		"pivot": {"x":0.5,"y":0.5}
	},
	"block-054":
	{
		"frame": {"x":102,"y":702,"w":50,"h":50},
		"rotated": false,
		"trimmed": false,
		"spriteSourceSize": {"x":0,"y":0,"w":50,"h":50},
		"sourceSize": {"w":50,"h":50},
		"pivot": {"x":0.5,"y":0.5}
	},
	"block-055":
	{
		"frame": {"x":102,"y":752,"w":50,"h":50},
		"rotated": false,
		"trimmed": false,
		"spriteSourceSize": {"x":0,"y":0,"w":50,"h":50},
		"sourceSize": {"w":50,"h":50},
		"pivot": {"x":0.5,"y":0.5}
	},
	"block-056":
	{
		"frame": {"x":102,"y":802,"w":50,"h":50},
		"rotated": false,
		"trimmed": false,
		"spriteSourceSize": {"x":0,"y":0,"w":50,"h":50},
		"sourceSize": {"w":50,"h":50},
		"pivot": {"x":0.5,"y":0.5}
	},
	"block-057":
	{
		"frame": {"x":102,"y":852,"w":50,"h":50},
		"rotated": false,
		"trimmed": false,
		"spriteSourceSize": {"x":0,"y":0,"w":50,"h":50},
		"sourceSize": {"w":50,"h":50},
		"pivot": {"x":0.5,"y":0.5}
	},
	"block-058":
	{
		"frame": {"x":102,"y":902,"w":50,"h":50},
		"rotated": false,
		"trimmed": false,
		"spriteSourceSize": {"x":0,"y":0,"w":50,"h":50},
		"sourceSize": {"w":50,"h":50},
		"pivot": {"x":0.5,"y":0.5}
	},
	"block-059":
	{
		"frame": {"x":102,"y":952,"w":50,"h":50},
		"rotated": false,
		"trimmed": false,
		"spriteSourceSize": {"x":0,"y":0,"w":50,"h":50},
		"sourceSize": {"w":50,"h":50},
		"pivot": {"x":0.5,"y":0.5}
	},
	"block-060":
	{
		"frame": {"x":152,"y":2,"w":50,"h":50},
		"rotated": false,
		"trimmed": false,
		"spriteSourceSize": {"x":0,"y":0,"w":50,"h":50},
		"sourceSize": {"w":50,"h":50},
		"pivot": {"x":0.5,"y":0.5}
	},
	"block-061":
	{
		"frame": {"x":152,"y":52,"w":50,"h":50},
		"rotated": false,
		"trimmed": false,
		"spriteSourceSize": {"x":0,"y":0,"w":50,"h":50},
		"sourceSize": {"w":50,"h":50},
		"pivot": {"x":0.5,"y":0.5}
	},
	"block-062":
	{
		"frame": {"x":152,"y":102,"w":50,"h":50},
		"rotated": false,
		"trimmed": false,
		"spriteSourceSize": {"x":0,"y":0,"w":50,"h":50},
		"sourceSize": {"w":50,"h":50},
		"pivot": {"x":0.5,"y":0.5}
	},
	"block-063":
	{
		"frame": {"x":152,"y":152,"w":50,"h":50},
		"rotated": false,
		"trimmed": false,
		"spriteSourceSize": {"x":0,"y":0,"w":50,"h":50},
		"sourceSize": {"w":50,"h":50},
		"pivot": {"x":0.5,"y":0.5}
	},
	"block-064":
	{
		"frame": {"x":152,"y":202,"w":50,"h":50},
		"rotated": false,
		"trimmed": false,
		"spriteSourceSize": {"x":0,"y":0,"w":50,"h":50},
		"sourceSize": {"w":50,"h":50},
		"pivot": {"x":0.5,"y":0.5}
	},
	"block-065":
	{
		"frame": {"x":152,"y":252,"w":50,"h":50},
		"rotated": false,
		"trimmed": false,
		"spriteSourceSize": {"x":0,"y":0,"w":50,"h":50},
		"sourceSize": {"w":50,"h":50},
		"pivot": {"x":0.5,"y":0.5}
	},
	"block-066":
	{
		"frame": {"x":152,"y":302,"w":50,"h":50},
		"rotated": false,
		"trimmed": false,
		"spriteSourceSize": {"x":0,"y":0,"w":50,"h":50},
		"sourceSize": {"w":50,"h":50},
		"pivot": {"x":0.5,"y":0.5}
	},
	"block-067":
	{
		"frame": {"x":152,"y":352,"w":50,"h":50},
		"rotated": false,
		"trimmed": false,
		"spriteSourceSize": {"x":0,"y":0,"w":50,"h":50},
		"sourceSize": {"w":50,"h":50},
		"pivot": {"x":0.5,"y":0.5}
	},
	"block-068":
	{
		"frame": {"x":152,"y":402,"w":50,"h":50},
		"rotated": false,
		"trimmed": false,
		"spriteSourceSize": {"x":0,"y":0,"w":50,"h":50},
		"sourceSize": {"w":50,"h":50},
		"pivot": {"x":0.5,"y":0.5}
	},
	"block-069":
	{
		"frame": {"x":152,"y":452,"w":50,"h":50},
		"rotated": false,
		"trimmed": false,
		"spriteSourceSize": {"x":0,"y":0,"w":50,"h":50},
		"sourceSize": {"w":50,"h":50},
		"pivot": {"x":0.5,"y":0.5}
	},
	"block-070":
	{
		"frame": {"x":152,"y":502,"w":50,"h":50},
		"rotated": false,
		"trimmed": false,
		"spriteSourceSize": {"x":0,"y":0,"w":50,"h":50},
		"sourceSize": {"w":50,"h":50},
		"pivot": {"x":0.5,"y":0.5}
	},
	"block-071":
	{
		"frame": {"x":152,"y":552,"w":50,"h":50},
		"rotated": false,
		"trimmed": false,
		"spriteSourceSize": {"x":0,"y":0,"w":50,"h":50},
		"sourceSize": {"w":50,"h":50},
		"pivot": {"x":0.5,"y":0.5}
	},
	"block-072":
	{
		"frame": {"x":152,"y":602,"w":50,"h":50},
		"rotated": false,
		"trimmed": false,
		"spriteSourceSize": {"x":0,"y":0,"w":50,"h":50},
		"sourceSize": {"w":50,"h":50},
		"pivot": {"x":0.5,"y":0.5}
	},
	"block-073":
	{
		"frame": {"x":152,"y":652,"w":50,"h":50},
		"rotated": false,
		"trimmed": false,
		"spriteSourceSize": {"x":0,"y":0,"w":50,"h":50},
		"sourceSize": {"w":50,"h":50},
		"pivot": {"x":0.5,"y":0.5}
	},
	"block-074":
	{
		"frame": {"x":152,"y":702,"w":50,"h":50},
		"rotated": false,
		"trimmed": false,
		"spriteSourceSize": {"x":0,"y":0,"w":50,"h":50},
		"sourceSize": {"w":50,"h":50},
		"pivot": {"x":0.5,"y":0.5}
	},
	"block-075":
	{
		"frame": {"x":152,"y":752,"w":50,"h":50},
		"rotated": false,
		"trimmed": false,
		"spriteSourceSize": {"x":0,"y":0,"w":50,"h":50},
		"sourceSize": {"w":50,"h":50},
		"pivot": {"x":0.5,"y":0.5}
	},
	"block-076":
	{
		"frame": {"x":152,"y":802,"w":50,"h":50},
		"rotated": false,
		"trimmed": false,
		"spriteSourceSize": {"x":0,"y":0,"w":50,"h":50},
		"sourceSize": {"w":50,"h":50},
		"pivot": {"x":0.5,"y":0.5}
	},
	"block-077":
	{
		"frame": {"x":152,"y":852,"w":50,"h":50},
		"rotated": false,
		"trimmed": false,
		"spriteSourceSize": {"x":0,"y":0,"w":50,"h":50},
		"sourceSize": {"w":50,"h":50},
		"pivot": {"x":0.5,"y":0.5}
	},
	"block-078":
	{
		"frame": {"x":152,"y":902,"w":50,"h":50},
		"rotated": false,
		"trimmed": false,
		"spriteSourceSize": {"x":0,"y":0,"w":50,"h":50},
		"sourceSize": {"w":50,"h":50},
		"pivot": {"x":0.5,"y":0.5}
	},
	"block-079":
	{
		"frame": {"x":152,"y":952,"w":50,"h":50},
		"rotated": false,
		"trimmed": false,
		"spriteSourceSize": {"x":0,"y":0,"w":50,"h":50},
		"sourceSize": {"w":50,"h":50},
		"pivot": {"x":0.5,"y":0.5}
	},
	"block-080":
	{
		"frame": {"x":202,"y":2,"w":50,"h":50},
		"rotated": false,
		"trimmed": false,
		"spriteSourceSize": {"x":0,"y":0,"w":50,"h":50},
		"sourceSize": {"w":50,"h":50},
		"pivot": {"x":0.5,"y":0.5}
	},
	"block-081":
	{
		"frame": {"x":202,"y":52,"w":50,"h":50},
		"rotated": false,
		"trimmed": false,
		"spriteSourceSize": {"x":0,"y":0,"w":50,"h":50},
		"sourceSize": {"w":50,"h":50},
		"pivot": {"x":0.5,"y":0.5}
	},
	"block-082":
	{
		"frame": {"x":202,"y":102,"w":50,"h":50},
		"rotated": false,
		"trimmed": false,
		"spriteSourceSize": {"x":0,"y":0,"w":50,"h":50},
		"sourceSize": {"w":50,"h":50},
		"pivot": {"x":0.5,"y":0.5}
	},
	"block-083":
	{
		"frame": {"x":202,"y":152,"w":50,"h":50},
		"rotated": false,
		"trimmed": false,
		"spriteSourceSize": {"x":0,"y":0,"w":50,"h":50},
		"sourceSize": {"w":50,"h":50},
		"pivot": {"x":0.5,"y":0.5}
	},
	"block-084":
	{
		"frame": {"x":202,"y":202,"w":50,"h":50},
		"rotated": false,
		"trimmed": false,
		"spriteSourceSize": {"x":0,"y":0,"w":50,"h":50},
		"sourceSize": {"w":50,"h":50},
		"pivot": {"x":0.5,"y":0.5}
	},
	"block-085":
	{
		"frame": {"x":202,"y":252,"w":50,"h":50},
		"rotated": false,
		"trimmed": false,
		"spriteSourceSize": {"x":0,"y":0,"w":50,"h":50},
		"sourceSize": {"w":50,"h":50},
		"pivot": {"x":0.5,"y":0.5}
	},
	"block-086":
	{
		"frame": {"x":202,"y":302,"w":50,"h":50},
		"rotated": false,
		"trimmed": false,
		"spriteSourceSize": {"x":0,"y":0,"w":50,"h":50},
		"sourceSize": {"w":50,"h":50},
		"pivot": {"x":0.5,"y":0.5}
	},
	"block-087":
	{
		"frame": {"x":202,"y":352,"w":50,"h":50},
		"rotated": false,
		"trimmed": false,
		"spriteSourceSize": {"x":0,"y":0,"w":50,"h":50},
		"sourceSize": {"w":50,"h":50},
		"pivot": {"x":0.5,"y":0.5}
	},
	"block-088":
	{
		"frame": {"x":202,"y":402,"w":50,"h":50},
		"rotated": false,
		"trimmed": false,
		"spriteSourceSize": {"x":0,"y":0,"w":50,"h":50},
		"sourceSize": {"w":50,"h":50},
		"pivot": {"x":0.5,"y":0.5}
	},
	"block-089":
	{
		"frame": {"x":202,"y":452,"w":50,"h":50},
		"rotated": false,
		"trimmed": false,
		"spriteSourceSize": {"x":0,"y":0,"w":50,"h":50},
		"sourceSize": {"w":50,"h":50},
		"pivot": {"x":0.5,"y":0.5}
	},
	"block-090":
	{
		"frame": {"x":202,"y":502,"w":50,"h":50},
		"rotated": false,
		"trimmed": false,
		"spriteSourceSize": {"x":0,"y":0,"w":50,"h":50},
		"sourceSize": {"w":50,"h":50},
		"pivot": {"x":0.5,"y":0.5}
	},
	"block-091":
	{
		"frame": {"x":202,"y":552,"w":50,"h":50},
		"rotated": false,
		"trimmed": false,
		"spriteSourceSize": {"x":0,"y":0,"w":50,"h":50},
		"sourceSize": {"w":50,"h":50},
		"pivot": {"x":0.5,"y":0.5}
	},
	"block-092":
	{
		"frame": {"x":202,"y":602,"w":50,"h":50},
		"rotated": false,
		"trimmed": false,
		"spriteSourceSize": {"x":0,"y":0,"w":50,"h":50},
		"sourceSize": {"w":50,"h":50},
		"pivot": {"x":0.5,"y":0.5}
	},
	"block-093":
	{
		"frame": {"x":202,"y":652,"w":50,"h":50},
		"rotated": false,
		"trimmed": false,
		"spriteSourceSize": {"x":0,"y":0,"w":50,"h":50},
		"sourceSize": {"w":50,"h":50},
		"pivot": {"x":0.5,"y":0.5}
	},
	"block-094":
	{
		"frame": {"x":202,"y":702,"w":50,"h":50},
		"rotated": false,
		"trimmed": false,
		"spriteSourceSize": {"x":0,"y":0,"w":50,"h":50},
		"sourceSize": {"w":50,"h":50},
		"pivot": {"x":0.5,"y":0.5}
	},
	"block-095":
	{
		"frame": {"x":202,"y":752,"w":50,"h":50},
		"rotated": false,
		"trimmed": false,
		"spriteSourceSize": {"x":0,"y":0,"w":50,"h":50},
		"sourceSize": {"w":50,"h":50},
		"pivot": {"x":0.5,"y":0.5}
	},
	"block-096":
	{
		"frame": {"x":202,"y":802,"w":50,"h":50},
		"rotated": false,
		"trimmed": false,
		"spriteSourceSize": {"x":0,"y":0,"w":50,"h":50},
		"sourceSize": {"w":50,"h":50},
		"pivot": {"x":0.5,"y":0.5}
	},
	"block-097":
	{
		"frame": {"x":202,"y":852,"w":50,"h":50},
		"rotated": false,
		"trimmed": false,
		"spriteSourceSize": {"x":0,"y":0,"w":50,"h":50},
		"sourceSize": {"w":50,"h":50},
		"pivot": {"x":0.5,"y":0.5}
	},
	"block-098":
	{
		"frame": {"x":202,"y":902,"w":50,"h":50},
		"rotated": false,
		"trimmed": false,
		"spriteSourceSize": {"x":0,"y":0,"w":50,"h":50},
		"sourceSize": {"w":50,"h":50},
		"pivot": {"x":0.5,"y":0.5}
	},
	"block-099":
	{
		"frame": {"x":202,"y":952,"w":50,"h":50},
		"rotated": false,
		"trimmed": false,
		"spriteSourceSize": {"x":0,"y":0,"w":50,"h":50},
		"sourceSize": {"w":50,"h":50},
		"pivot": {"x":0.5,"y":0.5}
	},
	"block-100":
	{
		"frame": {"x":252,"y":2,"w":50,"h":50},
		"rotated": false,
		"trimmed": false,
		"spriteSourceSize": {"x":0,"y":0,"w":50,"h":50},
		"sourceSize": {"w":50,"h":50},
		"pivot": {"x":0.5,"y":0.5}
	},
	"block-101":
	{
		"frame": {"x":252,"y":52,"w":50,"h":50},
		"rotated": false,
		"trimmed": false,
		"spriteSourceSize": {"x":0,"y":0,"w":50,"h":50},
		"sourceSize": {"w":50,"h":50},
		"pivot": {"x":0.5,"y":0.5}
	},
	"block-102":
	{
		"frame": {"x":252,"y":102,"w":50,"h":50},
		"rotated": false,
		"trimmed": false,
		"spriteSourceSize": {"x":0,"y":0,"w":50,"h":50},
		"sourceSize": {"w":50,"h":50},
		"pivot": {"x":0.5,"y":0.5}
	},
	"block-103":
	{
		"frame": {"x":252,"y":152,"w":50,"h":50},
		"rotated": false,
		"trimmed": false,
		"spriteSourceSize": {"x":0,"y":0,"w":50,"h":50},
		"sourceSize": {"w":50,"h":50},
		"pivot": {"x":0.5,"y":0.5}
	},
	"block-104":
	{
		"frame": {"x":252,"y":202,"w":50,"h":50},
		"rotated": false,
		"trimmed": false,
		"spriteSourceSize": {"x":0,"y":0,"w":50,"h":50},
		"sourceSize": {"w":50,"h":50},
		"pivot": {"x":0.5,"y":0.5}
	},
	"block-105":
	{
		"frame": {"x":252,"y":252,"w":50,"h":50},
		"rotated": false,
		"trimmed": false,
		"spriteSourceSize": {"x":0,"y":0,"w":50,"h":50},
		"sourceSize": {"w":50,"h":50},
		"pivot": {"x":0.5,"y":0.5}
	},
	"block-106":
	{
		"frame": {"x":252,"y":302,"w":50,"h":50},
		"rotated": false,
		"trimmed": false,
		"spriteSourceSize": {"x":0,"y":0,"w":50,"h":50},
		"sourceSize": {"w":50,"h":50},
		"pivot": {"x":0.5,"y":0.5}
	},
	"block-107":
	{
		"frame": {"x":252,"y":352,"w":50,"h":50},
		"rotated": false,
		"trimmed": false,
		"spriteSourceSize": {"x":0,"y":0,"w":50,"h":50},
		"sourceSize": {"w":50,"h":50},
		"pivot": {"x":0.5,"y":0.5}
	},
	"block-108":
	{
		"frame": {"x":252,"y":402,"w":50,"h":50},
		"rotated": false,
		"trimmed": false,
		"spriteSourceSize": {"x":0,"y":0,"w":50,"h":50},
		"sourceSize": {"w":50,"h":50},
		"pivot": {"x":0.5,"y":0.5}
	},
	"block-109":
	{
		"frame": {"x":252,"y":452,"w":50,"h":50},
		"rotated": false,
		"trimmed": false,
		"spriteSourceSize": {"x":0,"y":0,"w":50,"h":50},
		"sourceSize": {"w":50,"h":50},
		"pivot": {"x":0.5,"y":0.5}
	},
	"block-110":
	{
		"frame": {"x":252,"y":502,"w":50,"h":50},
		"rotated": false,
		"trimmed": false,
		"spriteSourceSize": {"x":0,"y":0,"w":50,"h":50},
		"sourceSize": {"w":50,"h":50},
		"pivot": {"x":0.5,"y":0.5}
	},
	"block-111":
	{
		"frame": {"x":252,"y":552,"w":50,"h":50},
		"rotated": false,
		"trimmed": false,
		"spriteSourceSize": {"x":0,"y":0,"w":50,"h":50},
		"sourceSize": {"w":50,"h":50},
		"pivot": {"x":0.5,"y":0.5}
	},
	"block-112":
	{
		"frame": {"x":252,"y":602,"w":50,"h":50},
		"rotated": false,
		"trimmed": false,
		"spriteSourceSize": {"x":0,"y":0,"w":50,"h":50},
		"sourceSize": {"w":50,"h":50},
		"pivot": {"x":0.5,"y":0.5}
	},
	"block-113":
	{
		"frame": {"x":252,"y":652,"w":50,"h":50},
		"rotated": false,
		"trimmed": false,
		"spriteSourceSize": {"x":0,"y":0,"w":50,"h":50},
		"sourceSize": {"w":50,"h":50},
		"pivot": {"x":0.5,"y":0.5}
	},
	"block-114":
	{
		"frame": {"x":252,"y":702,"w":50,"h":50},
		"rotated": false,
		"trimmed": false,
		"spriteSourceSize": {"x":0,"y":0,"w":50,"h":50},
		"sourceSize": {"w":50,"h":50},
		"pivot": {"x":0.5,"y":0.5}
	},
	"block-115":
	{
		"frame": {"x":252,"y":752,"w":50,"h":50},
		"rotated": false,
		"trimmed": false,
		"spriteSourceSize": {"x":0,"y":0,"w":50,"h":50},
		"sourceSize": {"w":50,"h":50},
		"pivot": {"x":0.5,"y":0.5}
	},
	"block-116":
	{
		"frame": {"x":252,"y":802,"w":50,"h":50},
		"rotated": false,
		"trimmed": false,
		"spriteSourceSize": {"x":0,"y":0,"w":50,"h":50},
		"sourceSize": {"w":50,"h":50},
		"pivot": {"x":0.5,"y":0.5}
	},
	"block-117":
	{
		"frame": {"x":252,"y":852,"w":50,"h":50},
		"rotated": false,
		"trimmed": false,
		"spriteSourceSize": {"x":0,"y":0,"w":50,"h":50},
		"sourceSize": {"w":50,"h":50},
		"pivot": {"x":0.5,"y":0.5}
	},
	"block-118":
	{
		"frame": {"x":252,"y":902,"w":50,"h":50},
		"rotated": false,
		"trimmed": false,
		"spriteSourceSize": {"x":0,"y":0,"w":50,"h":50},
		"sourceSize": {"w":50,"h":50},
		"pivot": {"x":0.5,"y":0.5}
	},
	"block-119":
	{
		"frame": {"x":252,"y":952,"w":50,"h":50},
		"rotated": false,
		"trimmed": false,
		"spriteSourceSize": {"x":0,"y":0,"w":50,"h":50},
		"sourceSize": {"w":50,"h":50},
		"pivot": {"x":0.5,"y":0.5}
	},
	"block-120":
	{
		"frame": {"x":302,"y":2,"w":50,"h":50},
		"rotated": false,
		"trimmed": false,
		"spriteSourceSize": {"x":0,"y":0,"w":50,"h":50},
		"sourceSize": {"w":50,"h":50},
		"pivot": {"x":0.5,"y":0.5}
	},
	"block-121":
	{
		"frame": {"x":302,"y":52,"w":50,"h":50},
		"rotated": false,
		"trimmed": false,
		"spriteSourceSize": {"x":0,"y":0,"w":50,"h":50},
		"sourceSize": {"w":50,"h":50},
		"pivot": {"x":0.5,"y":0.5}
	},
	"block-122":
	{
		"frame": {"x":302,"y":102,"w":50,"h":50},
		"rotated": false,
		"trimmed": false,
		"spriteSourceSize": {"x":0,"y":0,"w":50,"h":50},
		"sourceSize": {"w":50,"h":50},
		"pivot": {"x":0.5,"y":0.5}
	},
	"block-123":
	{
		"frame": {"x":302,"y":152,"w":50,"h":50},
		"rotated": false,
		"trimmed": false,
		"spriteSourceSize": {"x":0,"y":0,"w":50,"h":50},
		"sourceSize": {"w":50,"h":50},
		"pivot": {"x":0.5,"y":0.5}
	},
	"block-124":
	{
		"frame": {"x":302,"y":202,"w":50,"h":50},
		"rotated": false,
		"trimmed": false,
		"spriteSourceSize": {"x":0,"y":0,"w":50,"h":50},
		"sourceSize": {"w":50,"h":50},
		"pivot": {"x":0.5,"y":0.5}
	},
	"block-125":
	{
		"frame": {"x":302,"y":252,"w":50,"h":50},
		"rotated": false,
		"trimmed": false,
		"spriteSourceSize": {"x":0,"y":0,"w":50,"h":50},
		"sourceSize": {"w":50,"h":50},
		"pivot": {"x":0.5,"y":0.5}
	},
	"block-126":
	{
		"frame": {"x":302,"y":302,"w":50,"h":50},
		"rotated": false,
		"trimmed": false,
		"spriteSourceSize": {"x":0,"y":0,"w":50,"h":50},
		"sourceSize": {"w":50,"h":50},
		"pivot": {"x":0.5,"y":0.5}
	},
	"block-127":
	{
		"frame": {"x":302,"y":352,"w":50,"h":50},
		"rotated": false,
		"trimmed": false,
		"spriteSourceSize": {"x":0,"y":0,"w":50,"h":50},
		"sourceSize": {"w":50,"h":50},
		"pivot": {"x":0.5,"y":0.5}
	},
	"block-128":
	{
		"frame": {"x":302,"y":402,"w":50,"h":50},
		"rotated": false,
		"trimmed": false,
		"spriteSourceSize": {"x":0,"y":0,"w":50,"h":50},
		"sourceSize": {"w":50,"h":50},
		"pivot": {"x":0.5,"y":0.5}
	},
	"block-129":
	{
		"frame": {"x":302,"y":452,"w":50,"h":50},
		"rotated": false,
		"trimmed": false,
		"spriteSourceSize": {"x":0,"y":0,"w":50,"h":50},
		"sourceSize": {"w":50,"h":50},
		"pivot": {"x":0.5,"y":0.5}
	},
	"block-130":
	{
		"frame": {"x":302,"y":502,"w":50,"h":50},
		"rotated": false,
		"trimmed": false,
		"spriteSourceSize": {"x":0,"y":0,"w":50,"h":50},
		"sourceSize": {"w":50,"h":50},
		"pivot": {"x":0.5,"y":0.5}
	},
	"block-131":
	{
		"frame": {"x":302,"y":552,"w":50,"h":50},
		"rotated": false,
		"trimmed": false,
		"spriteSourceSize": {"x":0,"y":0,"w":50,"h":50},
		"sourceSize": {"w":50,"h":50},
		"pivot": {"x":0.5,"y":0.5}
	},
	"block-132":
	{
		"frame": {"x":302,"y":602,"w":50,"h":50},
		"rotated": false,
		"trimmed": false,
		"spriteSourceSize": {"x":0,"y":0,"w":50,"h":50},
		"sourceSize": {"w":50,"h":50},
		"pivot": {"x":0.5,"y":0.5}
	},
	"block-133":
	{
		"frame": {"x":302,"y":652,"w":50,"h":50},
		"rotated": false,
		"trimmed": false,
		"spriteSourceSize": {"x":0,"y":0,"w":50,"h":50},
		"sourceSize": {"w":50,"h":50},
		"pivot": {"x":0.5,"y":0.5}
	},
	"block-134":
	{
		"frame": {"x":302,"y":702,"w":50,"h":50},
		"rotated": false,
		"trimmed": false,
		"spriteSourceSize": {"x":0,"y":0,"w":50,"h":50},
		"sourceSize": {"w":50,"h":50},
		"pivot": {"x":0.5,"y":0.5}
	},
	"block-135":
	{
		"frame": {"x":302,"y":752,"w":50,"h":50},
		"rotated": false,
		"trimmed": false,
		"spriteSourceSize": {"x":0,"y":0,"w":50,"h":50},
		"sourceSize": {"w":50,"h":50},
		"pivot": {"x":0.5,"y":0.5}
	},
	"block-136":
	{
		"frame": {"x":302,"y":802,"w":50,"h":50},
		"rotated": false,
		"trimmed": false,
		"spriteSourceSize": {"x":0,"y":0,"w":50,"h":50},
		"sourceSize": {"w":50,"h":50},
		"pivot": {"x":0.5,"y":0.5}
	},
	"block-137":
	{
		"frame": {"x":302,"y":852,"w":50,"h":50},
		"rotated": false,
		"trimmed": false,
		"spriteSourceSize": {"x":0,"y":0,"w":50,"h":50},
		"sourceSize": {"w":50,"h":50},
		"pivot": {"x":0.5,"y":0.5}
	},
	"block-138":
	{
		"frame": {"x":302,"y":902,"w":50,"h":50},
		"rotated": false,
		"trimmed": false,
		"spriteSourceSize": {"x":0,"y":0,"w":50,"h":50},
		"sourceSize": {"w":50,"h":50},
		"pivot": {"x":0.5,"y":0.5}
	},
	"block-139":
	{
		"frame": {"x":302,"y":952,"w":50,"h":50},
		"rotated": false,
		"trimmed": false,
		"spriteSourceSize": {"x":0,"y":0,"w":50,"h":50},
		"sourceSize": {"w":50,"h":50},
		"pivot": {"x":0.5,"y":0.5}
	},
	"block-140":
	{
		"frame": {"x":352,"y":2,"w":50,"h":50},
		"rotated": false,
		"trimmed": false,
		"spriteSourceSize": {"x":0,"y":0,"w":50,"h":50},
		"sourceSize": {"w":50,"h":50},
		"pivot": {"x":0.5,"y":0.5}
	},
	"block-141":
	{
		"frame": {"x":352,"y":52,"w":50,"h":50},
		"rotated": false,
		"trimmed": false,
		"spriteSourceSize": {"x":0,"y":0,"w":50,"h":50},
		"sourceSize": {"w":50,"h":50},
		"pivot": {"x":0.5,"y":0.5}
	},
	"block-142":
	{
		"frame": {"x":352,"y":102,"w":50,"h":50},
		"rotated": false,
		"trimmed": false,
		"spriteSourceSize": {"x":0,"y":0,"w":50,"h":50},
		"sourceSize": {"w":50,"h":50},
		"pivot": {"x":0.5,"y":0.5}
	},
	"block-143":
	{
		"frame": {"x":352,"y":152,"w":50,"h":50},
		"rotated": false,
		"trimmed": false,
		"spriteSourceSize": {"x":0,"y":0,"w":50,"h":50},
		"sourceSize": {"w":50,"h":50},
		"pivot": {"x":0.5,"y":0.5}
	},
	"block-144":
	{
		"frame": {"x":352,"y":202,"w":50,"h":50},
		"rotated": false,
		"trimmed": false,
		"spriteSourceSize": {"x":0,"y":0,"w":50,"h":50},
		"sourceSize": {"w":50,"h":50},
		"pivot": {"x":0.5,"y":0.5}
	},
	"block-145":
	{
		"frame": {"x":352,"y":252,"w":50,"h":50},
		"rotated": false,
		"trimmed": false,
		"spriteSourceSize": {"x":0,"y":0,"w":50,"h":50},
		"sourceSize": {"w":50,"h":50},
		"pivot": {"x":0.5,"y":0.5}
	},
	"block-146":
	{
		"frame": {"x":352,"y":302,"w":50,"h":50},
		"rotated": false,
		"trimmed": false,
		"spriteSourceSize": {"x":0,"y":0,"w":50,"h":50},
		"sourceSize": {"w":50,"h":50},
		"pivot": {"x":0.5,"y":0.5}
	},
	"block-147":
	{
		"frame": {"x":352,"y":352,"w":50,"h":50},
		"rotated": false,
		"trimmed": false,
		"spriteSourceSize": {"x":0,"y":0,"w":50,"h":50},
		"sourceSize": {"w":50,"h":50},
		"pivot": {"x":0.5,"y":0.5}
	},
	"block-148":
	{
		"frame": {"x":352,"y":402,"w":50,"h":50},
		"rotated": false,
		"trimmed": false,
		"spriteSourceSize": {"x":0,"y":0,"w":50,"h":50},
		"sourceSize": {"w":50,"h":50},
		"pivot": {"x":0.5,"y":0.5}
	},
	"block-149":
	{
		"frame": {"x":352,"y":452,"w":50,"h":50},
		"rotated": false,
		"trimmed": false,
		"spriteSourceSize": {"x":0,"y":0,"w":50,"h":50},
		"sourceSize": {"w":50,"h":50},
		"pivot": {"x":0.5,"y":0.5}
	},
	"block-150":
	{
		"frame": {"x":352,"y":502,"w":50,"h":50},
		"rotated": false,
		"trimmed": false,
		"spriteSourceSize": {"x":0,"y":0,"w":50,"h":50},
		"sourceSize": {"w":50,"h":50},
		"pivot": {"x":0.5,"y":0.5}
	},
	"block-151":
	{
		"frame": {"x":352,"y":552,"w":50,"h":50},
		"rotated": false,
		"trimmed": false,
		"spriteSourceSize": {"x":0,"y":0,"w":50,"h":50},
		"sourceSize": {"w":50,"h":50},
		"pivot": {"x":0.5,"y":0.5}
	},
	"block-152":
	{
		"frame": {"x":352,"y":602,"w":50,"h":50},
		"rotated": false,
		"trimmed": false,
		"spriteSourceSize": {"x":0,"y":0,"w":50,"h":50},
		"sourceSize": {"w":50,"h":50},
		"pivot": {"x":0.5,"y":0.5}
	},
	"block-153":
	{
		"frame": {"x":352,"y":652,"w":50,"h":50},
		"rotated": false,
		"trimmed": false,
		"spriteSourceSize": {"x":0,"y":0,"w":50,"h":50},
		"sourceSize": {"w":50,"h":50},
		"pivot": {"x":0.5,"y":0.5}
	},
	"block-154":
	{
		"frame": {"x":352,"y":702,"w":50,"h":50},
		"rotated": false,
		"trimmed": false,
		"spriteSourceSize": {"x":0,"y":0,"w":50,"h":50},
		"sourceSize": {"w":50,"h":50},
		"pivot": {"x":0.5,"y":0.5}
	},
	"block-155":
	{
		"frame": {"x":352,"y":752,"w":50,"h":50},
		"rotated": false,
		"trimmed": false,
		"spriteSourceSize": {"x":0,"y":0,"w":50,"h":50},
		"sourceSize": {"w":50,"h":50},
		"pivot": {"x":0.5,"y":0.5}
	},
	"block-156":
	{
		"frame": {"x":352,"y":802,"w":50,"h":50},
		"rotated": false,
		"trimmed": false,
		"spriteSourceSize": {"x":0,"y":0,"w":50,"h":50},
		"sourceSize": {"w":50,"h":50},
		"pivot": {"x":0.5,"y":0.5}
	},
	"block-157":
	{
		"frame": {"x":352,"y":852,"w":50,"h":50},
		"rotated": false,
		"trimmed": false,
		"spriteSourceSize": {"x":0,"y":0,"w":50,"h":50},
		"sourceSize": {"w":50,"h":50},
		"pivot": {"x":0.5,"y":0.5}
	},
	"block-158":
	{
		"frame": {"x":352,"y":902,"w":50,"h":50},
		"rotated": false,
		"trimmed": false,
		"spriteSourceSize": {"x":0,"y":0,"w":50,"h":50},
		"sourceSize": {"w":50,"h":50},
		"pivot": {"x":0.5,"y":0.5}
	},
	"block-159":
	{
		"frame": {"x":352,"y":952,"w":50,"h":50},
		"rotated": false,
		"trimmed": false,
		"spriteSourceSize": {"x":0,"y":0,"w":50,"h":50},
		"sourceSize": {"w":50,"h":50},
		"pivot": {"x":0.5,"y":0.5}
	},
	"block-160":
	{
		"frame": {"x":402,"y":2,"w":50,"h":50},
		"rotated": false,
		"trimmed": false,
		"spriteSourceSize": {"x":0,"y":0,"w":50,"h":50},
		"sourceSize": {"w":50,"h":50},
		"pivot": {"x":0.5,"y":0.5}
	},
	"block-161":
	{
		"frame": {"x":402,"y":52,"w":50,"h":50},
		"rotated": false,
		"trimmed": false,
		"spriteSourceSize": {"x":0,"y":0,"w":50,"h":50},
		"sourceSize": {"w":50,"h":50},
		"pivot": {"x":0.5,"y":0.5}
	},
	"block-162":
	{
		"frame": {"x":402,"y":102,"w":50,"h":50},
		"rotated": false,
		"trimmed": false,
		"spriteSourceSize": {"x":0,"y":0,"w":50,"h":50},
		"sourceSize": {"w":50,"h":50},
		"pivot": {"x":0.5,"y":0.5}
	},
	"block-163":
	{
		"frame": {"x":402,"y":152,"w":50,"h":50},
		"rotated": false,
		"trimmed": false,
		"spriteSourceSize": {"x":0,"y":0,"w":50,"h":50},
		"sourceSize": {"w":50,"h":50},
		"pivot": {"x":0.5,"y":0.5}
	},
	"block-164":
	{
		"frame": {"x":402,"y":202,"w":50,"h":50},
		"rotated": false,
		"trimmed": false,
		"spriteSourceSize": {"x":0,"y":0,"w":50,"h":50},
		"sourceSize": {"w":50,"h":50},
		"pivot": {"x":0.5,"y":0.5}
	},
	"block-165":
	{
		"frame": {"x":402,"y":252,"w":50,"h":50},
		"rotated": false,
		"trimmed": false,
		"spriteSourceSize": {"x":0,"y":0,"w":50,"h":50},
		"sourceSize": {"w":50,"h":50},
		"pivot": {"x":0.5,"y":0.5}
	},
	"block-166":
	{
		"frame": {"x":402,"y":302,"w":50,"h":50},
		"rotated": false,
		"trimmed": false,
		"spriteSourceSize": {"x":0,"y":0,"w":50,"h":50},
		"sourceSize": {"w":50,"h":50},
		"pivot": {"x":0.5,"y":0.5}
	},
	"block-167":
	{
		"frame": {"x":402,"y":352,"w":50,"h":50},
		"rotated": false,
		"trimmed": false,
		"spriteSourceSize": {"x":0,"y":0,"w":50,"h":50},
		"sourceSize": {"w":50,"h":50},
		"pivot": {"x":0.5,"y":0.5}
	},
	"block-168":
	{
		"frame": {"x":402,"y":402,"w":50,"h":50},
		"rotated": false,
		"trimmed": false,
		"spriteSourceSize": {"x":0,"y":0,"w":50,"h":50},
		"sourceSize": {"w":50,"h":50},
		"pivot": {"x":0.5,"y":0.5}
	},
	"block-169":
	{
		"frame": {"x":402,"y":452,"w":50,"h":50},
		"rotated": false,
		"trimmed": false,
		"spriteSourceSize": {"x":0,"y":0,"w":50,"h":50},
		"sourceSize": {"w":50,"h":50},
		"pivot": {"x":0.5,"y":0.5}
	},
	"block-170":
	{
		"frame": {"x":402,"y":502,"w":50,"h":50},
		"rotated": false,
		"trimmed": false,
		"spriteSourceSize": {"x":0,"y":0,"w":50,"h":50},
		"sourceSize": {"w":50,"h":50},
		"pivot": {"x":0.5,"y":0.5}
	},
	"block-171":
	{
		"frame": {"x":402,"y":552,"w":50,"h":50},
		"rotated": false,
		"trimmed": false,
		"spriteSourceSize": {"x":0,"y":0,"w":50,"h":50},
		"sourceSize": {"w":50,"h":50},
		"pivot": {"x":0.5,"y":0.5}
	},
	"block-172":
	{
		"frame": {"x":402,"y":602,"w":50,"h":50},
		"rotated": false,
		"trimmed": false,
		"spriteSourceSize": {"x":0,"y":0,"w":50,"h":50},
		"sourceSize": {"w":50,"h":50},
		"pivot": {"x":0.5,"y":0.5}
	},
	"block-173":
	{
		"frame": {"x":402,"y":652,"w":50,"h":50},
		"rotated": false,
		"trimmed": false,
		"spriteSourceSize": {"x":0,"y":0,"w":50,"h":50},
		"sourceSize": {"w":50,"h":50},
		"pivot": {"x":0.5,"y":0.5}
	},
	"block-174":
	{
		"frame": {"x":402,"y":702,"w":50,"h":50},
		"rotated": false,
		"trimmed": false,
		"spriteSourceSize": {"x":0,"y":0,"w":50,"h":50},
		"sourceSize": {"w":50,"h":50},
		"pivot": {"x":0.5,"y":0.5}
	},
	"block-175":
	{
		"frame": {"x":402,"y":752,"w":50,"h":50},
		"rotated": false,
		"trimmed": false,
		"spriteSourceSize": {"x":0,"y":0,"w":50,"h":50},
		"sourceSize": {"w":50,"h":50},
		"pivot": {"x":0.5,"y":0.5}
	},
	"block-176":
	{
		"frame": {"x":402,"y":802,"w":50,"h":50},
		"rotated": false,
		"trimmed": false,
		"spriteSourceSize": {"x":0,"y":0,"w":50,"h":50},
		"sourceSize": {"w":50,"h":50},
		"pivot": {"x":0.5,"y":0.5}
	},
	"block-177":
	{
		"frame": {"x":402,"y":852,"w":50,"h":50},
		"rotated": false,
		"trimmed": false,
		"spriteSourceSize": {"x":0,"y":0,"w":50,"h":50},
		"sourceSize": {"w":50,"h":50},
		"pivot": {"x":0.5,"y":0.5}
	},
	"block-178":
	{
		"frame": {"x":402,"y":902,"w":50,"h":50},
		"rotated": false,
		"trimmed": false,
		"spriteSourceSize": {"x":0,"y":0,"w":50,"h":50},
		"sourceSize": {"w":50,"h":50},
		"pivot": {"x":0.5,"y":0.5}
	},
	"block-179":
	{
		"frame": {"x":402,"y":952,"w":50,"h":50},
		"rotated": false,
		"trimmed": false,
		"spriteSourceSize": {"x":0,"y":0,"w":50,"h":50},
		"sourceSize": {"w":50,"h":50},
		"pivot": {"x":0.5,"y":0.5}
	},
	"block-180":
	{
		"frame": {"x":452,"y":2,"w":50,"h":50},
		"rotated": false,
		"trimmed": false,
		"spriteSourceSize": {"x":0,"y":0,"w":50,"h":50},
		"sourceSize": {"w":50,"h":50},
		"pivot": {"x":0.5,"y":0.5}
	},
	"block-181":
	{
		"frame": {"x":452,"y":52,"w":50,"h":50},
		"rotated": false,
		"trimmed": false,
		"spriteSourceSize": {"x":0,"y":0,"w":50,"h":50},
		"sourceSize": {"w":50,"h":50},
		"pivot": {"x":0.5,"y":0.5}
	},
	"block-182":
	{
		"frame": {"x":452,"y":102,"w":50,"h":50},
		"rotated": false,
		"trimmed": false,
		"spriteSourceSize": {"x":0,"y":0,"w":50,"h":50},
		"sourceSize": {"w":50,"h":50},
		"pivot": {"x":0.5,"y":0.5}
	},
	"block-183":
	{
		"frame": {"x":452,"y":152,"w":50,"h":50},
		"rotated": false,
		"trimmed": false,
		"spriteSourceSize": {"x":0,"y":0,"w":50,"h":50},
		"sourceSize": {"w":50,"h":50},
		"pivot": {"x":0.5,"y":0.5}
	},
	"block-184":
	{
		"frame": {"x":452,"y":202,"w":50,"h":50},
		"rotated": false,
		"trimmed": false,
		"spriteSourceSize": {"x":0,"y":0,"w":50,"h":50},
		"sourceSize": {"w":50,"h":50},
		"pivot": {"x":0.5,"y":0.5}
	},
	"block-185":
	{
		"frame": {"x":452,"y":252,"w":50,"h":50},
		"rotated": false,
		"trimmed": false,
		"spriteSourceSize": {"x":0,"y":0,"w":50,"h":50},
		"sourceSize": {"w":50,"h":50},
		"pivot": {"x":0.5,"y":0.5}
	},
	"block-186":
	{
		"frame": {"x":452,"y":302,"w":50,"h":50},
		"rotated": false,
		"trimmed": false,
		"spriteSourceSize": {"x":0,"y":0,"w":50,"h":50},
		"sourceSize": {"w":50,"h":50},
		"pivot": {"x":0.5,"y":0.5}
	},
	"block-187":
	{
		"frame": {"x":452,"y":352,"w":50,"h":50},
		"rotated": false,
		"trimmed": false,
		"spriteSourceSize": {"x":0,"y":0,"w":50,"h":50},
		"sourceSize": {"w":50,"h":50},
		"pivot": {"x":0.5,"y":0.5}
	},
	"block-188":
	{
		"frame": {"x":452,"y":402,"w":50,"h":50},
		"rotated": false,
		"trimmed": false,
		"spriteSourceSize": {"x":0,"y":0,"w":50,"h":50},
		"sourceSize": {"w":50,"h":50},
		"pivot": {"x":0.5,"y":0.5}
	},
	"block-189":
	{
		"frame": {"x":452,"y":452,"w":50,"h":50},
		"rotated": false,
		"trimmed": false,
		"spriteSourceSize": {"x":0,"y":0,"w":50,"h":50},
		"sourceSize": {"w":50,"h":50},
		"pivot": {"x":0.5,"y":0.5}
	},
	"block-190":
	{
		"frame": {"x":452,"y":502,"w":50,"h":50},
		"rotated": false,
		"trimmed": false,
		"spriteSourceSize": {"x":0,"y":0,"w":50,"h":50},
		"sourceSize": {"w":50,"h":50},
		"pivot": {"x":0.5,"y":0.5}
	},
	"block-191":
	{
		"frame": {"x":452,"y":552,"w":50,"h":50},
		"rotated": false,
		"trimmed": false,
		"spriteSourceSize": {"x":0,"y":0,"w":50,"h":50},
		"sourceSize": {"w":50,"h":50},
		"pivot": {"x":0.5,"y":0.5}
	},
	"block-192":
	{
		"frame": {"x":452,"y":602,"w":50,"h":50},
		"rotated": false,
		"trimmed": false,
		"spriteSourceSize": {"x":0,"y":0,"w":50,"h":50},
		"sourceSize": {"w":50,"h":50},
		"pivot": {"x":0.5,"y":0.5}
	},
	"block-193":
	{
		"frame": {"x":452,"y":652,"w":50,"h":50},
		"rotated": false,
		"trimmed": false,
		"spriteSourceSize": {"x":0,"y":0,"w":50,"h":50},
		"sourceSize": {"w":50,"h":50},
		"pivot": {"x":0.5,"y":0.5}
	},
	"block-194":
	{
		"frame": {"x":452,"y":702,"w":50,"h":50},
		"rotated": false,
		"trimmed": false,
		"spriteSourceSize": {"x":0,"y":0,"w":50,"h":50},
		"sourceSize": {"w":50,"h":50},
		"pivot": {"x":0.5,"y":0.5}
	},
	"block-195":
	{
		"frame": {"x":452,"y":752,"w":50,"h":50},
		"rotated": false,
		"trimmed": false,
		"spriteSourceSize": {"x":0,"y":0,"w":50,"h":50},
		"sourceSize": {"w":50,"h":50},
		"pivot": {"x":0.5,"y":0.5}
	},
	"block-196":
	{
		"frame": {"x":452,"y":802,"w":50,"h":50},
		"rotated": false,
		"trimmed": false,
		"spriteSourceSize": {"x":0,"y":0,"w":50,"h":50},
		"sourceSize": {"w":50,"h":50},
		"pivot": {"x":0.5,"y":0.5}
	},
	"block-197":
	{
		"frame": {"x":452,"y":852,"w":50,"h":50},
		"rotated": false,
		"trimmed": false,
		"spriteSourceSize": {"x":0,"y":0,"w":50,"h":50},
		"sourceSize": {"w":50,"h":50},
		"pivot": {"x":0.5,"y":0.5}
	},
	"block-198":
	{
		"frame": {"x":452,"y":902,"w":50,"h":50},
		"rotated": false,
		"trimmed": false,
		"spriteSourceSize": {"x":0,"y":0,"w":50,"h":50},
		"sourceSize": {"w":50,"h":50},
		"pivot": {"x":0.5,"y":0.5}
	},
	"block-199":
	{
		"frame": {"x":452,"y":952,"w":50,"h":50},
		"rotated": false,
		"trimmed": false,
		"spriteSourceSize": {"x":0,"y":0,"w":50,"h":50},
		"sourceSize": {"w":50,"h":50},
		"pivot": {"x":0.5,"y":0.5}
	},
	"block-200":
	{
		"frame": {"x":502,"y":2,"w":50,"h":50},
		"rotated": false,
		"trimmed": false,
		"spriteSourceSize": {"x":0,"y":0,"w":50,"h":50},
		"sourceSize": {"w":50,"h":50},
		"pivot": {"x":0.5,"y":0.5}
	},
	"block-201":
	{
		"frame": {"x":502,"y":52,"w":50,"h":50},
		"rotated": false,
		"trimmed": false,
		"spriteSourceSize": {"x":0,"y":0,"w":50,"h":50},
		"sourceSize": {"w":50,"h":50},
		"pivot": {"x":0.5,"y":0.5}
	},
	"block-202":
	{
		"frame": {"x":502,"y":102,"w":50,"h":50},
		"rotated": false,
		"trimmed": false,
		"spriteSourceSize": {"x":0,"y":0,"w":50,"h":50},
		"sourceSize": {"w":50,"h":50},
		"pivot": {"x":0.5,"y":0.5}
	},
	"block-203":
	{
		"frame": {"x":502,"y":152,"w":50,"h":50},
		"rotated": false,
		"trimmed": false,
		"spriteSourceSize": {"x":0,"y":0,"w":50,"h":50},
		"sourceSize": {"w":50,"h":50},
		"pivot": {"x":0.5,"y":0.5}
	},
	"block-204":
	{
		"frame": {"x":502,"y":202,"w":50,"h":50},
		"rotated": false,
		"trimmed": false,
		"spriteSourceSize": {"x":0,"y":0,"w":50,"h":50},
		"sourceSize": {"w":50,"h":50},
		"pivot": {"x":0.5,"y":0.5}
	},
	"block-205":
	{
		"frame": {"x":502,"y":252,"w":50,"h":50},
		"rotated": false,
		"trimmed": false,
		"spriteSourceSize": {"x":0,"y":0,"w":50,"h":50},
		"sourceSize": {"w":50,"h":50},
		"pivot": {"x":0.5,"y":0.5}
	},
	"block-206":
	{
		"frame": {"x":502,"y":302,"w":50,"h":50},
		"rotated": false,
		"trimmed": false,
		"spriteSourceSize": {"x":0,"y":0,"w":50,"h":50},
		"sourceSize": {"w":50,"h":50},
		"pivot": {"x":0.5,"y":0.5}
	},
	"block-207":
	{
		"frame": {"x":502,"y":352,"w":50,"h":50},
		"rotated": false,
		"trimmed": false,
		"spriteSourceSize": {"x":0,"y":0,"w":50,"h":50},
		"sourceSize": {"w":50,"h":50},
		"pivot": {"x":0.5,"y":0.5}
	},
	"block-208":
	{
		"frame": {"x":502,"y":402,"w":50,"h":50},
		"rotated": false,
		"trimmed": false,
		"spriteSourceSize": {"x":0,"y":0,"w":50,"h":50},
		"sourceSize": {"w":50,"h":50},
		"pivot": {"x":0.5,"y":0.5}
	},
	"block-209":
	{
		"frame": {"x":502,"y":452,"w":50,"h":50},
		"rotated": false,
		"trimmed": false,
		"spriteSourceSize": {"x":0,"y":0,"w":50,"h":50},
		"sourceSize": {"w":50,"h":50},
		"pivot": {"x":0.5,"y":0.5}
	},
	"block-210":
	{
		"frame": {"x":502,"y":502,"w":50,"h":50},
		"rotated": false,
		"trimmed": false,
		"spriteSourceSize": {"x":0,"y":0,"w":50,"h":50},
		"sourceSize": {"w":50,"h":50},
		"pivot": {"x":0.5,"y":0.5}
	},
	"block-211":
	{
		"frame": {"x":502,"y":552,"w":50,"h":50},
		"rotated": false,
		"trimmed": false,
		"spriteSourceSize": {"x":0,"y":0,"w":50,"h":50},
		"sourceSize": {"w":50,"h":50},
		"pivot": {"x":0.5,"y":0.5}
	},
	"block-212":
	{
		"frame": {"x":502,"y":602,"w":50,"h":50},
		"rotated": false,
		"trimmed": false,
		"spriteSourceSize": {"x":0,"y":0,"w":50,"h":50},
		"sourceSize": {"w":50,"h":50},
		"pivot": {"x":0.5,"y":0.5}
	},
	"block-213":
	{
		"frame": {"x":502,"y":652,"w":50,"h":50},
		"rotated": false,
		"trimmed": false,
		"spriteSourceSize": {"x":0,"y":0,"w":50,"h":50},
		"sourceSize": {"w":50,"h":50},
		"pivot": {"x":0.5,"y":0.5}
	},
	"block-214":
	{
		"frame": {"x":502,"y":702,"w":50,"h":50},
		"rotated": false,
		"trimmed": false,
		"spriteSourceSize": {"x":0,"y":0,"w":50,"h":50},
		"sourceSize": {"w":50,"h":50},
		"pivot": {"x":0.5,"y":0.5}
	},
	"block-215":
	{
		"frame": {"x":502,"y":752,"w":50,"h":50},
		"rotated": false,
		"trimmed": false,
		"spriteSourceSize": {"x":0,"y":0,"w":50,"h":50},
		"sourceSize": {"w":50,"h":50},
		"pivot": {"x":0.5,"y":0.5}
	},
	"block-216":
	{
		"frame": {"x":502,"y":802,"w":50,"h":50},
		"rotated": false,
		"trimmed": false,
		"spriteSourceSize": {"x":0,"y":0,"w":50,"h":50},
		"sourceSize": {"w":50,"h":50},
		"pivot": {"x":0.5,"y":0.5}
	},
	"block-217":
	{
		"frame": {"x":502,"y":852,"w":50,"h":50},
		"rotated": false,
		"trimmed": false,
		"spriteSourceSize": {"x":0,"y":0,"w":50,"h":50},
		"sourceSize": {"w":50,"h":50},
		"pivot": {"x":0.5,"y":0.5}
	},
	"block-218":
	{
		"frame": {"x":502,"y":902,"w":50,"h":50},
		"rotated": false,
		"trimmed": false,
		"spriteSourceSize": {"x":0,"y":0,"w":50,"h":50},
		"sourceSize": {"w":50,"h":50},
		"pivot": {"x":0.5,"y":0.5}
	},
	"block-219":
	{
		"frame": {"x":502,"y":952,"w":50,"h":50},
		"rotated": false,
		"trimmed": false,
		"spriteSourceSize": {"x":0,"y":0,"w":50,"h":50},
		"sourceSize": {"w":50,"h":50},
		"pivot": {"x":0.5,"y":0.5}
	},
	"block-220":
	{
		"frame": {"x":552,"y":2,"w":50,"h":50},
		"rotated": false,
		"trimmed": false,
		"spriteSourceSize": {"x":0,"y":0,"w":50,"h":50},
		"sourceSize": {"w":50,"h":50},
		"pivot": {"x":0.5,"y":0.5}
	},
	"block-221":
	{
		"frame": {"x":552,"y":52,"w":50,"h":50},
		"rotated": false,
		"trimmed": false,
		"spriteSourceSize": {"x":0,"y":0,"w":50,"h":50},
		"sourceSize": {"w":50,"h":50},
		"pivot": {"x":0.5,"y":0.5}
	},
	"block-222":
	{
		"frame": {"x":552,"y":102,"w":50,"h":50},
		"rotated": false,
		"trimmed": false,
		"spriteSourceSize": {"x":0,"y":0,"w":50,"h":50},
		"sourceSize": {"w":50,"h":50},
		"pivot": {"x":0.5,"y":0.5}
	},
	"block-223":
	{
		"frame": {"x":552,"y":152,"w":50,"h":50},
		"rotated": false,
		"trimmed": false,
		"spriteSourceSize": {"x":0,"y":0,"w":50,"h":50},
		"sourceSize": {"w":50,"h":50},
		"pivot": {"x":0.5,"y":0.5}
	},
	"block-224":
	{
		"frame": {"x":552,"y":202,"w":50,"h":50},
		"rotated": false,
		"trimmed": false,
		"spriteSourceSize": {"x":0,"y":0,"w":50,"h":50},
		"sourceSize": {"w":50,"h":50},
		"pivot": {"x":0.5,"y":0.5}
	},
	"block-225":
	{
		"frame": {"x":552,"y":252,"w":50,"h":50},
		"rotated": false,
		"trimmed": false,
		"spriteSourceSize": {"x":0,"y":0,"w":50,"h":50},
		"sourceSize": {"w":50,"h":50},
		"pivot": {"x":0.5,"y":0.5}
	},
	"block-226":
	{
		"frame": {"x":552,"y":302,"w":50,"h":50},
		"rotated": false,
		"trimmed": false,
		"spriteSourceSize": {"x":0,"y":0,"w":50,"h":50},
		"sourceSize": {"w":50,"h":50},
		"pivot": {"x":0.5,"y":0.5}
	},
	"block-227":
	{
		"frame": {"x":552,"y":352,"w":50,"h":50},
		"rotated": false,
		"trimmed": false,
		"spriteSourceSize": {"x":0,"y":0,"w":50,"h":50},
		"sourceSize": {"w":50,"h":50},
		"pivot": {"x":0.5,"y":0.5}
	},
	"block-228":
	{
		"frame": {"x":552,"y":402,"w":50,"h":50},
		"rotated": false,
		"trimmed": false,
		"spriteSourceSize": {"x":0,"y":0,"w":50,"h":50},
		"sourceSize": {"w":50,"h":50},
		"pivot": {"x":0.5,"y":0.5}
	},
	"block-229":
	{
		"frame": {"x":552,"y":452,"w":50,"h":50},
		"rotated": false,
		"trimmed": false,
		"spriteSourceSize": {"x":0,"y":0,"w":50,"h":50},
		"sourceSize": {"w":50,"h":50},
		"pivot": {"x":0.5,"y":0.5}
	},
	"block-230":
	{
		"frame": {"x":552,"y":502,"w":50,"h":50},
		"rotated": false,
		"trimmed": false,
		"spriteSourceSize": {"x":0,"y":0,"w":50,"h":50},
		"sourceSize": {"w":50,"h":50},
		"pivot": {"x":0.5,"y":0.5}
		}},
		"meta": {
			"app": "http://www.codeandweb.com/texturepacker",
			"version": "1.0",
			"image": "isoblocks.png",
			"format": "RGBA8888",
			"size": {"w":604,"h":1004},
			"scale": "1",
			"smartupdate": "$TexturePacker:SmartUpdate:374bd21edcae959939158e7fd6e65dcf:cd5bc335d8675fde3d6915ee5faa4cac:072e5033960028874cc45b7e3d803902$"
		}
	}
